<mxfile host="app.diagrams.net" modified="2024-06-13T08:31:41.457Z" agent="Mozilla/5.0 (Windows NT 10.0; Win64; x64) AppleWebKit/537.36 (KHTML, like Gecko) Chrome/126.0.0.0 Safari/537.36" etag="NZGRC45jFUzZ3SGiSEY9" version="24.5.4" type="gitlab">
  <diagram name="Page-1" id="7Z7VExNHc4JeqY6otj85">
    <mxGraphModel dx="1418" dy="705" grid="1" gridSize="10" guides="1" tooltips="1" connect="1" arrows="1" fold="1" page="1" pageScale="1" pageWidth="850" pageHeight="1100" math="0" shadow="0">
      <root>
        <mxCell id="0" />
        <mxCell id="1" parent="0" />
      </root>
    </mxGraphModel>
  </diagram>
</mxfile>
